%YAML 1.1
%TAG !u! tag:unity3d.com,2011:
--- !u!1045 &1
EditorBuildSettings:
  m_ObjectHideFlags: 0
  serializedVersion: 2
  m_Scenes:
  - enabled: 1
    path: Assets/menu.unity
    guid: 7121ef71b3ba64a8aaab963af89b81c0
  - enabled: 0
    path: Assets/__DELETED_GUID_Trash/c320a516a7e3f99428db43bd0559b491
    guid: c320a516a7e3f99428db43bd0559b491
  - enabled: 1
    path: Assets/Hallway.unity
    guid: 1d1e5265ed34e5140b2a24ad943d0598
  - enabled: 1
    path: Assets/LivingRoom.unity
    guid: bf3948d716a9b5949a3d07ed7c1e2f03
  - enabled: 1
    path: Assets/EndScene.unity
    guid: 26d400dc479933d449f4cb9afe668615
